[
    {
        "dia":"Viernes 14",
        "curso":"MC510-E(TEO)",
        "horario":"11-13",
        "marcacion":"11:02 - 13:00"
    },
    {
        "dia":"Viernes 12",
        "curso":"BICO1-F(PRA)",
        "horario":"09-11",
        "marcacion":"9:00- 11:24"
        
    },
    {
        "dia":"Viernes 12",
        "curso":"BICO1-F(TEO)",
        "horario":"08-09",
        "marcacion":"08:04-9:00"
        
    },
    {
        "dia":"Jueves 11",
        "curso":"MB536-1(PRA)",
        "horario":"19-22",
        "marcacion":"19:00 - 22:00"
    }
]